Our style #,Vendor style #,Image (top),Image (side),Image (side2),Categories,Approx Semi-mount dwt,Stone Breakdown,stone count,weight,Diamond CTTW provided,Diamond color,Diamond quality,14kt ($1300),18kt,Platinum ($1200),setting,polish,melee,shipping from casting,shipping to customer,total 14kt,total 18kt,total Platinum,Title
97199,84709,,,,Fashion Rings,2.7,52 - .01PT Round,52,0.52,1/2 ct tw,G - H,VS,$212,306.5,$609,91,10,156,10,25,1270.08,1508.22,2270.52,1/2ct. Double Swirl Ring
97200,84710,,,,Fashion Rings,3.5,41 - .01PT Round,41,0.41,3/8 ct tw,G - H,VS,$271,393.5,$779,71.75,10,123,10,25,1287.09,1595.79,2567.25,3/8ct. Gladiator Bar Ring
97201,84711,,,,Fashion Rings,3.07,45 - .01PT Round,45,0.45,1/2 ct tw,G - H,VS,$239,346.45,$688,78.75,10,135,10,25,1254.33,1525.104,2385.81,1/2ct. X Ring
97203,84713,,,,Fashion Rings,2.87,30 - .006PT Round,30,0.18,1/5 ct tw,G - H,VS,$224,324.45,$645,52.5,10,54,10,25,946.26,1199.394,2007.18,1/5ct. Diamond Split Band Ring
97204,84714,,,,Fashion Rings,2.8,49 - .0075PT Round,49,0.3675,1/4 ct tw,G - H,VS,$228,326,$644,85.75,10,110.25,10,25,1181.88,1428.84,2230.2,1/4ct. Heart Split Band Ring
97205,84715,,,,Fashion Rings,2.38,44 - .006PT Round,44,0.264,1/4 ct tw,G - H,VS,$188,271.3,$541,77,10,79.2,10,25,980.784,1190.7,1870.344,1/4ct Split Band Ring
97206,84716,,,,Fashion Rings,3.2,64 - .01PT Round,64,0.64,5/8 ct tw,G - H,VS,$249,361,$715,112,10,192,10,25,1506.96,1789.2,2681.28,5/8ct. Clover Split Band Ring
97207,84717,,,,Fashion Rings,3.03,50 - .01PT Round,50,0.5,1/2 ct tw,G - H,VS,$236,342.05,$679,87.5,10,150,10,25,1306.62,1573.866,2422.98,1/2ct Oval Split Band Ring
97208,84718,,,,Fashion Rings,4.34,42 - .01PT Round,42,0.42,3/8 ct tw,G - H,VS,$332,483.9,$957,73.5,10,126,10,25,1452.78,1835.568,3027.78,3/8ct. Four Bar Ring
97209,84719,,,,Fashion Rings,3.25,46 - .01PT Round,46,0.46,1/2 ct tw,G - H,VS,$252,365.75,$726,80.5,10,138,10,25,1299.06,1585.71,2493.54,1/2ct. Double Swirl Split Band Ring
97210,84720,,,,Fashion Rings,3.25,50 - .01PT Round,50,0.5,1/2 ct tw,G - H,VS,$252,365.75,$726,87.5,10,150,10,25,1346.94,1633.59,2541.42,1/2ct Crossover X Ring
97212,84722,,,,Fashion Rings,2.75,34 - .01PT Round,34,0.34,1/3 ct tw,G - H,VS,$216,312.25,$620,59.5,10,102,10,25,1064.7,1307.25,2082.78,1/3ct. Gladiator Ring
97213,84723,,,,Fashion Rings,3.43,72 - .01PT Round,72,0.72,3/4 ct tw,G - H,VS,$266,386.05,$764,126,10,216,10,25,1645.56,1948.086,2900.52,3/4ct. Diamond Split Band Ring
97214,84724,,,,Fashion Rings,3,54 - .01PT Round,54,0.54,1/2 ct tw,G - H,VS,$234,339,$673,94.5,10,162,10,25,1349.46,1614.06,2455.74,1/2ct. Double Bar Split Band Ring
97215,84725,,,,Fashion Rings,3.1,50 - .01PT Round,50,0.5,1/2 ct tw,G - H,VS,$241,349.5,$694,87.5,10,150,10,25,1319.22,1592.64,2460.78,1/2ct. Double Bar Gladiator Ring
97216,84726,,,,Fashion Rings,2.1,20 - .01PT Round,20,0.2,1/5 ct tw,G - H,VS,$168,241.5,$482,35,10,60,10,25,776.16,961.38,1567.44,1/5ct. Double Arrow Ring
PE-A,DCP0001-A,,,,Pendants,0.9,15 - .005PT Round,15,0.075,1/15 ct tw,G - H,VS,119,,,26.25,10,22.5,10,25,536.13,,,"1/15ct Petite ""A""  Pendant"
PE-B,DCP0001-B,,,,Pendants,0.9,19 - .005PT Round,19,0.095,1/10 ct tw,G - H,VS,119,,,33.25,10,28.5,10,25,568.89,,,"1/10ct Petite ""B""  Pendant"
PE-C,DCP0001-C,,,,Pendants,0.9,11 - .005PT Round,11,0.055,1/20 ct tw,G - H,VS,119,,,19.25,10,16.5,10,25,503.37,,,"1/20ct Petite ""C""  Pendant"
PE-D,DCP0001-D,,,,Pendants,0.9,17 - .005PT Round,17,0.085,1/10 ct tw,G - H,VS,119,,,29.75,10,25.5,10,25,552.51,,,"1/10CTct Petite ""D""  Pendant"
PE-E,DCP0001-E,,,,Pendants,1.15,16 - .005PT Round,16,0.08,1/15 ct tw,G - H,VS,119,,,28,10,24,10,25,544.32,,,"1/15ct Petite ""E""  Pendant"
PE-F,DCP0001-F,,,,Pendants,0.9,12 - .005PT Round,12,0.06,1/20 ct tw,G - H,VS,119,,,21,10,18,10,25,511.56,,,"1/20ct Petite ""F""  Pendant"
PE-G,DCP0001-G,,,,Pendants,0.9,14 - .005PT Round,14,0.07,1/15 ct tw,G - H,VS,119,,,24.5,10,21,10,25,527.94,,,"1/15ct Petite ""G""  Pendant"
PE-H,DCP0001-H,,,,Pendants,1,12 - .005PT Round,12,0.06,1/20 ct tw,G - H,VS,119,,,21,10,18,10,25,511.56,,,"1/20ct Petite ""H""  Pendant"
PE-I,DCP0001-I,,,,Pendants,1,11 - .005PT Round,11,0.055,1/20 ct tw,G - H,VS,119,,,19.25,10,16.5,10,25,503.37,,,"1/20ct Petite ""I""  Pendant"
PE-J,DCP0001-J,,,,Pendants,0.9,8 - .005PT Round,8,0.04,1/20 ct tw,G - H,VS,119,,,14,10,12,10,25,478.8,,,"1/20ct Petite ""J""  Pendant"
PE-K,DCP0001-K,,,,Pendants,0.9,12 - .005PT Round,12,0.06,1/20 ct tw,G - H,VS,119,,,21,10,18,10,25,511.56,,,"1/20ct Petite ""K""  Pendant"
PE-L,DCP0001-L,,,,Pendants,0.85,8 - .005PT Round,8,0.04,1/20 ct tw,G - H,VS,119,,,14,10,12,10,25,478.8,,,"1/20ct Petite ""L""  Pendant"
PE-M,DCP0001-M,,,,Pendants,1.1,19 - .005PT Round,19,0.095,1/10 ct tw,G - H,VS,119,,,33.25,10,28.5,10,25,568.89,,,"1/10ct Petite ""M""  Pendant"
PE-N,DCP0001-N,,,,Pendants,1.1,15 - .005PT Round,15,0.075,1/15 ct tw,G - H,VS,119,,,26.25,10,22.5,10,25,536.13,,,"1/15ct Petite ""N""  Pendant"
PE-O,DCP0001-O,,,,Pendants,0.85,12 - .005PT Round,12,0.06,1/20 ct tw,G - H,VS,119,,,21,10,18,10,25,511.56,,,"1/20ct Petite ""O""  Pendant"
PE-P,DCP0001-P,,,,Pendants,0.85,13 - .005PT Round,13,0.065,1/15 ct tw,G - H,VS,119,,,22.75,10,19.5,10,25,519.75,,,"1/15ct Petite ""P""  Pendant"
PE-Q,DCP0001-Q,,,,Pendants,0.85,13 - .005PT Round,13,0.065,1/15 ct tw,G - H,VS,119,,,22.75,10,19.5,10,25,519.75,,,"1/15ct Petite ""Q""  Pendant"
PE-R,DCP0001-R,,,,Pendants,1.05,18 - .005PT Round,18,0.09,1/10 ct tw,G - H,VS,119,,,31.5,10,27,10,25,560.7,,,"1/10ct Petite ""R""  Pendant"
PE-S,DCP0001-S,,,,Pendants,0.85,11 - .005PT Round,11,0.055,1/20 ct tw,G - H,VS,119,,,19.25,10,16.5,10,25,503.37,,,"1/20ct Petite ""S""  Pendant"
PE-T,DCP0001-T,,,,Pendants,0.85,9 - .005PT Round,9,0.045,1/20 ct tw,G - H,VS,119,,,15.75,10,13.5,10,25,486.99,,,"1/20ct Petite ""T""  Pendant"
PE-U,DCP0001-U,,,,Pendants,1,13 - .005PT Round,13,0.065,1/15 ct tw,G - H,VS,119,,,22.75,10,19.5,10,25,519.75,,,"1/15ct Petite ""U""  Pendant"
PE-V,DCP0001-V,,,,Pendants,0.85,12 - .005PT Round,12,0.06,1/20 ct tw,G - H,VS,119,,,21,10,18,10,25,511.56,,,"1/20ct Petite ""V""  Pendant"
PE-W,DCP0001-W,,,,Pendants,1.2,20 - .005PT Round,20,0.1,1/10 ct tw,G - H,VS,119,,,35,10,30,10,25,577.08,,,"1/10ct Petite ""W""  Pendant"
PE-X,DCP0001-X,,,,Pendants,0.95,13 - .005PT Round,13,0.065,1/15 ct tw,G - H,VS,119,,,22.75,10,19.5,10,25,519.75,,,"1/15ct Petite ""X""  Pendant"
PE-Y,DCP0001-Y,,,,Pendants,0.85,9 - .005PT Round,9,0.045,1/20 ct tw,G - H,VS,119,,,15.75,10,13.5,10,25,486.99,,,"1/20ct Petite ""Y""  Pendant"
PE-Z,DCP0001-Z,,,,Pendants,1.1,15 - .005PT Round,15,0.075,1/15 ct tw,G - H,VS,119,,,26.25,10,22.5,10,25,536.13,,,"1/15ct Petite ""Z""  Pendant"
53465,40975,,,,Hoops,1.3,27 - .01PT Round,0,0.27,1/4 ct tw,G - H,VS,$88,133.5,,0,10,81,10,25,539.28,653.94,,1/2ct  Huggie Hoops
53467,40977,,,,Hoops,0.85,7 - .015PT Round,0,0.105,1/10 ct tw,G - H,VS,$58,87.75,,0,10,31.5,10,25,338.94,413.91,,1/5ct Huggie Hoops
53468,40978,,,,Hoops,1.2,"16 - .0075PT Round ,16 - .01PT Round ,9 - .015PT Round",25,0.415,3/8 ct tw,G - H,VS,$82,124,,43.75,10,124.5,10,25,744.03,849.87,,3/4ct Huggie Hoops
53495-0.0075-30MM,41005-.0075-30MM,,,,Hoops,2.2,42 - .0075PT Round,0,0.315,1/3 ct tw,G - H,VS,$150,227,,0,10,94.5,10,25,729.54,923.58,,2/3ct - 1 1/5 Inch Hoops
53495-0.0075-42MM,41005-.0075-42MM,,,,Hoops,3.7,63 - .0075PT Round,0,0.4725,1/2 ct tw,G - H,VS,$252,381.5,,0,10,141.75,10,25,1105.65,1431.99,,1ct - 1 3/5 Inch Hoops
53495-0.0075-61MM,41005-.0075-61MM,,,,Hoops,4.3,100 - .0075PT Round,0,0.75,3/4 ct tw,G - H,VS,$293,443.5,,0,10,225,10,25,1418.76,1798.02,,1 1/2ct - 2 2/5 Inch Hoops
53495-0.01-20MM,41005-.01-20MM,,,,Hoops,1.6,25 - .01PT Round,0,0.25,1/4 ct tw,G - H,VS,$109,165,,0,10,75,10,25,577.08,718.2,,1/2ct - 3/4 Inch Hoops
53495-0.01-24MM,41005-.01-24MM,,,,Hoops,1.8,30 - .01PT Round,0,0.3,1/3 ct tw,G - H,VS,$123,186,,0,10,90,10,25,650.16,808.92,,2/3ct - 1 Inch Hoops
53495-0.01-35MM,41005-.01-35MM,,,,Hoops,2.7,50 - .01PT Round,0,0.5,1/2 ct tw,G - H,VS,$184,278.5,,0,10,150,10,25,955.08,1193.22,,1ct - 1 2/5 Inch Hoops
53495-0.01-50MM,41005-.01-50MM,,,,Hoops,4,78 - .01PT Round,0,0.78,3/4 ct tw,G - H,VS,$273,413,,0,10,234,10,25,1391.04,1743.84,,1 1/2ct - 2 Inch Hoops
53495-0.0125-36MM,41005-.0125-36MM,,,,Hoops,3.1,47 - .0125PT Round,0,0.5875,5/8 ct tw,G - H,VS,$211,319.5,,0,10,176.25,10,25,1089.27,1362.69,,1 1/4ct - 1 2/5 Inch Hoops
53495-0.0125-50MM,41005-.0125-50MM,,,,Hoops,4.4,71 - .0125PT Round,0,0.8875,7/8 ct tw,G - H,VS,$300,454,,0,10,266.25,10,25,1540.35,1928.43,,1 3/4ct - 2 Inch Hoops
53495-0.015-25MM,41005-.015-25MM,,,,Hoops,2,30 - .015PT Round,0,0.45,1/2 ct tw,G - H,VS,$136,206,,0,10,135,10,25,796.32,972.72,,9/10ct - 1  Inch Hoops
53495-0.015-42MM,41005-.015-42MM,,,,Hoops,4.2,58 - .015PT Round,0,0.87,7/8 ct tw,G - H,VS,$287,434,,0,10,261,10,25,1494.36,1864.8,,1 3/4 - 1 3/5 Inch Hoops
53495-0.02-20MM,41005-.02-20MM,,,,Hoops,1.6,17 - .02PT Round,0,0.34,1/3 ct tw,G - H,VS,$109,165,,0,10,102,10,25,645.12,786.24,,2/3ct - 3/4 Inch Hoops
53495-0.02-25MM,41005-.02-25MM,,,,Hoops,2,25 - .02PT Round,0,0.5,1/2 ct tw,G - H,VS,$136,206,,0,10,150,10,25,834.12,1010.52,,1ct - 1  Inch Hoops 
53495-0.02-35MM,41005-.02-35MM,,,,Hoops,2.6,40 - .02PT Round,0,0.8,3/4 ct tw,G - H,VS,$177,268,,0,10,240,10,25,1164.24,1393.56,,1 1/2ct - 1 2/5 Inch Hoops
53495-0.02-43MM,41005-.02-43MM,,,,Hoops,3.3,53 - .02PT Round,0,1.06,1 ct tw,G - H,VS,$225,340.5,,0,10,318,10,25,1481.76,1772.82,,2 1/10ct - 1 3/5 Inch Hoops
53495-0.02-56MM,41005-.02-56MM,,,,Hoops,4.6,77 - .02PT Round,0,1.54,1 1/2 ct tw,G - H,VS,$314,475,,0,10,462,10,25,2068.92,2474.64,,3ct - 2 1/4 Inch Hoops
53498-0.01-20MM,41008-.01-20MM,,,,Hoops,1.08,20 - .01PT Round,0,0.2,1/5 ct tw,G - H,VS,$73,110.8,,0,10,60,10,25,448.56,543.816,,2/5ct - 3/4 Inch Hoops
53498-0.01-30MM,41008-.01-30MM,,,,Hoops,1.4,40 - .01PT Round,0,0.4,3/8 ct tw,G - H,VS,$95,144,,0,10,120,10,25,655.2,778.68,,3/4ct - 1 1/5 Inch Hoops
53498-0.01-40MM,41008-.01-40MM,,,,Hoops,2.1,61 - .01PT Round,0,0.61,5/8 ct tw,G - H,VS,$166,239.5,,0,10,183,10,25,992.88,1178.1,,1 1/4ct - 1 3/5 Inch Hoops
53498-0.01-52MM,41008-.01-52MM,,,,Hoops,2.5,80 - .01PT Round,0,0.8,3/4 ct tw,G - H,VS,$170,257.5,,0,10,240,10,25,1146.6,1367.1,,1 3/5ct - 2 Inch Hoops
53498-0.02-24MM,41008-.02-24MM,,,,Hoops,1.4,25 - .02PT Round,0,0.5,1/2 ct tw,G - H,VS,$95,144,,0,10,150,10,25,730.8,854.28,,1ct - 1 Inch Hoops
53498-0.02-34MM,41008-.02-34MM,,,,Hoops,2.1,38 - .02PT Round,0,0.76,3/4 ct tw,G - H,VS,$143,216.5,,0,10,228,10,25,1048.32,1233.54,,1 1/2ct - 1 3/10 Inch Hoops
53498-0.02-41MM,41008-.02-41MM,,,,Hoops,2.6,50 - .02PT Round,0,1,1 ct tw,G - H,VS,$177,268,,0,10,300,10,25,1315.44,1544.76,,2ct - 1 3/5 Inch Hoops
53502-0.01-34MM,41012-.01-34MM,,,,Hoops,1.5,39 - .01PT Round,0,0.39,3/8 ct tw,G - H,VS,$119,171.5,,0,10,117,10,25,708.12,840.42,,3/4ct - 1  3/10 Inch Oval Hoops
53502-0.01-47MM,41012-.01-47MM,,,,Hoops,2.7,66 - .01PT Round,0,0.66,5/8 ct tw,G - H,VS,$184,278.5,,0,10,198,10,25,1076.04,1314.18,,1 1/4ct - 1 3/4 Inch Oval  Hoops
53502-0.01-56MM,41012-.01-56MM,,,,Hoops,2.9,79 - .01PT Round,0,0.79,3/4 ct tw,G - H,VS,$228,329.5,,0,10,237,10,25,1285.2,1540.98,,1 1/2ct - 2 1/4 Inch Oval Hoops
53502-0.02-23MM,41012-.02-23MM,,,,Hoops,1.7,18 - .02PT Round,0,0.36,1/3 ct tw,G - H,VS,$116,175.5,,0,10,108,10,25,677.88,827.82,,2/3ct - 9/10 Inch Oval Hoops
53502-0.02-30MM,41012-.02-30MM,,,,Hoops,2.1,27 - .02PT Round,0,0.54,1/2 ct tw,G - H,VS,$143,216.5,,0,10,162,10,25,882,1067.22,,1ct - 1 1/5 Inch Oval Hoops
53502-0.02-37MM,41012-.02-37MM,,,,Hoops,2.6,37 - .02PT Round,0,0.74,3/4 ct tw,G - H,VS,$177,268,,0,10,222,10,25,1118.88,1348.2,,1 1/2ct - 1 1/2 Inch Oval Hoops
53505-0.01-30MM,41015-.01-30MM,,,,Hoops,2.4,21 - .01PT Round,0,0.21,1/5 ct tw,G - H,VS,$164,248,,0,10,63,10,25,685.44,897.12,,2/5ct - 1 1/5 Inch Hoops
53507-0.01-20MM,41017-.01-20MM,,,,Hoops,0.9,25 - .01PT Round,0,0.25,1/4 ct tw,G - H,VS,$61,92.5,,0,10,75,10,25,456.12,535.5,,1/2ct - 3/4 Inch Hoops (Shared Prong)
53507-0.01-25MM,41017-.01-25MM,,,,Hoops,1.1,36 - .01PT Round,0,0.36,1/3 ct tw,G - H,VS,$75,113.5,,0,10,108,10,25,574.56,671.58,,2/3ct - 1 Inch Hoops (Shared Prong)
53507-0.01-33MM,41017-.01-33MM,,,,Hoops,1.6,50 - .01PT Round,0,0.5,1/2 ct tw,G - H,VS,$109,165,,0,10,150,10,25,766.08,907.2,,1ct - 1 3/10 Inch Hoops (Shared Prong)
53507-0.01-44MM,41017-.01-44MM,,,,Hoops,2.2,75 - .01PT Round,0,0.75,3/4 ct tw,G - H,VS,$150,227,,0,10,225,10,25,1058.4,1252.44,,1 1/2ct - 1 3/4 Inch Hoops (Shared Prong)
53507-0.015-25MM,41017-.015-25MM,,,,Hoops,1.5,33 - .015PT Round,0,0.495,1/2 ct tw,G - H,VS,$102,154.5,,0,10,148.5,10,25,744.66,876.96,,1ct - 1 Inch Hoops (Shared Prong)
53507-0.015-34MM,41017-.015-34MM,,,,Hoops,1.8,50 - .015PT Round,0,0.75,3/4 ct tw,G - H,VS,$123,186,,0,10,225,10,25,990.36,1149.12,,1 1/2ct - 1 3/10 Inch Hoops (Shared Prong)
53507-0.015-43MM,41017-.015-43MM,,,,Hoops,2.2,67 - .015PT Round,0,1.005,1 ct tw,G - H,VS,$150,227,,0,10,301.5,10,25,1251.18,1445.22,,2ct - 1 7/10  Inch Hoops (Shared Prong)
53507-0.02-23MM,41017-.02-23MM,,,,Hoops,1.3,25 - .02PT Round,0,0.5,1/2 ct tw,G - H,VS,$88,133.5,,0,10,150,10,25,713.16,827.82,,1ct - 9/10 Inch Hoops (Shared Prong)
53507-0.02-30MM,41017-.02-30MM,,,,Hoops,2.7,37 - .02PT Round,0,0.74,3/4 ct tw,G - H,VS,$184,278.5,,0,10,222,10,25,1136.52,1374.66,,1 1/2ct - 1 1/5 Inch Hoops (Shared Prong)
53507-0.02-38MM,41017-.02-38MM,,,,Hoops,2.9,50 - .02PT Round,0,1,1 ct tw,G - H,VS,$198,299.5,,0,10,300,10,25,1368.36,1624.14,,2 ct - 1 1/2 Inch Hoops (Shared Prong)
53508-0.02-39MM,41018-.02-39MM,,,,Hoops,2.4,50 - .02PT Round,0,1,1 ct tw,G - H,VS,$164,248,,0,10,300,10,25,1282.68,1494.36,,2ct - 1 1/2 Inch Hoops (Shared Prong)
53508-0.02-52MM,41018-.02-52MM,,,,Hoops,3.8,75 - .02PT Round,0,1.5,1 1/2 ct tw,G - H,VS,$259,392,,0,10,450,10,25,1900.08,2235.24,,3ct - 2 Inch Hoops (Shared Prong)
53512-0.005-16MM,41022-.005-16MM,,,,Hoops,1.7,100 - .005PT Round,0,0.5,1/2 ct tw,G - H,VS,$116,175.5,,0,10,150,10,25,783.72,933.66,,1ct - 3/5 Inch Hoops (Pave)
53512-0.005-22MM,41022-.005-22MM,,,,Hoops,1.7,100 - .005PT Round,0,0.5,1/2 ct tw,G - H,VS,$116,175.5,,0,10,150,10,25,783.72,933.66,,1ct - 4/5 Inch Hoops (Pave)
53512-0.005-35MM,41022-.005-35MM,,,,Hoops,2.6,200 - .005PT Round,0,1,1 ct tw,G - H,VS,$177,268,,0,10,300,10,25,1315.44,1544.76,,2ct - 1 2/5 Inch Hoops (Pave)
53512-0.005-56MM,41022-.005-56MM,,,,Hoops,5.3,350 - .005PT Round,0,1.75,1 3/4 ct tw,G - H,VS,$362,547.5,,0,10,525,10,25,2348.64,2816.1,,3 1/2ct - 2 1/4 Inch Hoops (Pave)
53512-0.015-25MM,41022-.015-25MM,,,,Hoops,3.3,74 - .015PT Round,0,1.11,1 ct tw,G - H,VS,$225,340.5,,0,10,333,10,25,1519.56,1810.62,,2ct - 1 Inch Hoops (Pave)
53512-0.015-26MM,41022-.015-26MM,,,,Hoops,2.8,89 - .015PT Round,0,1.335,1 1/3 ct tw,G - H,VS,$191,289,,0,10,400.5,10,25,1603.98,1850.94,,2 2/3ct - 1 Inch Hoops (Pave)
53512-0.015-36MM,41022-.015-36MM,,,,Hoops,4.7,125 - .015PT Round,0,1.875,1 7/8 ct tw,G - H,VS,$321,485.5,,0,10,562.5,10,25,2339.82,2754.36,,3 3/4ct - 1 1/2 Inch Hoops (Pave)
53512-0.015-50MM,41022-.015-50MM,,,,Hoops,4.9,230 - .015PT Round,0,3.45,3 1/2 ct tw,G - H,VS,$334,505.5,,0,10,1035,10,25,3563.28,3995.46,,7ct - 2 Inch Hoops (Pave)
53513-0.005-38MM,41023-.005-38MM,,,,Hoops,2.6,200 - .005PT Round,0,1,1 ct tw,G - H,VS,$177,268,,0,10,300,10,25,1315.44,1544.76,,2ct - 1 1/2 Inch Oval Hoops (Pave)
53513-0.015-31MM,41023-.015-31MM,,,,Hoops,3.6,104 - .015PT Round,0,1.56,1 1/2 ct tw,G - H,VS,$246,372,,0,10,468,10,25,1912.68,2230.2,,3ct - 1 1/5 Inch Oval Hoops (Pave)
53513-0.015-40MM,41023-.015-40MM,,,,Hoops,4.6,146 - .015PT Round,0,2.19,2 1/5 ct tw,G - H,VS,$314,475,,0,10,657,10,25,2560.32,2966.04,,4 2/5ct - 1 3/5 Inch Oval Hoops (Pave)
53513-0.015-51MM,41023-.015-51MM,,,,Hoops,5.5,200 - .015PT Round,0,3,3 ct tw,G - H,VS,$375,567.5,,0,10,900,10,25,3326.4,3811.5,,6ct - 2 Inch Oval Hoops (Pave)
53514-0.02-20MM,41024-.02-20MM,,,,Hoops,1.3,19 - .02PT Round,0,0.38,3/8 ct tw,G - H,VS,$88,133.5,,0,10,114,10,25,622.44,737.1,,3/4ct - 3/4 Inch Lucida Hoops
53514-0.02-26MM,41024-.02-26MM,,,,Hoops,1.9,28 - .02PT Round,0,0.56,1/2 ct tw,G - H,VS,$129,195.5,,0,10,168,10,25,861.84,1029.42,,1ct - 1 Inch Lucida Hoops
53514-0.02-35MM,41024-.02-35MM,,,,Hoops,2.7,48 - .02PT Round,0,0.96,1 ct tw,G - H,VS,$184,278.5,,0,10,288,10,25,1302.84,1540.98,,2ct - 1 2/5 Inch Lucida Hoops
53515-0.02-30MM,41025-.02-30MM,,,,Hoops,1.8,30 - .02PT Round,0,0.6,5/8 ct tw,G - H,VS,$123,186,,0,10,180,10,25,876.96,1035.72,,1 1/4ct - 1 1/5 Inch Oval Lucida Hoops
53515-0.02-38MM,41025-.02-38MM,,,,Hoops,2.3,44 - .02PT Round,0,0.88,7/8 ct tw,G - H,VS,$157,237.5,,0,10,264,10,25,1174.32,1377.18,,1 3/4ct - 1 1/2 Inch Oval Lucida Hoops